uart/simulation/qsim/uart.msim.vcd
$comment
	File created using the following command:
		vcd file uart.msim.vcd -direction
$end
$date
	Mon Feb 10 21:28:10 2020
$end
$version
	ModelSim Version 10.5b
$end
$timescale
	1ps
$end

$scope module uart_vhd_vec_tst $end
$var wire 1 ! CLOckIn $end
$var wire 1 " RESet $end
$var wire 1 # text1 $end
$var wire 1 $ TX $end

$scope module i1 $end
$var wire 1 % gnd $end
$var wire 1 & vcc $end
$var wire 1 ' unknown $end
$var wire 1 ( devoe $end
$var wire 1 ) devclrn $end
$var wire 1 * devpor $end
$var wire 1 + ww_devoe $end
$var wire 1 , ww_devclrn $end
$var wire 1 - ww_devpor $end
$var wire 1 . ww_CLOckIn $end
$var wire 1 / ww_TX $end
$var wire 1 0 ww_RESet $end
$var wire 1 1 ww_text1 $end
$var wire 1 2 \f1|temp~clkctrl_INCLK_bus\ [3] $end
$var wire 1 3 \f1|temp~clkctrl_INCLK_bus\ [2] $end
$var wire 1 4 \f1|temp~clkctrl_INCLK_bus\ [1] $end
$var wire 1 5 \f1|temp~clkctrl_INCLK_bus\ [0] $end
$var wire 1 6 \CLOckIn~inputclkctrl_INCLK_bus\ [3] $end
$var wire 1 7 \CLOckIn~inputclkctrl_INCLK_bus\ [2] $end
$var wire 1 8 \CLOckIn~inputclkctrl_INCLK_bus\ [1] $end
$var wire 1 9 \CLOckIn~inputclkctrl_INCLK_bus\ [0] $end
$var wire 1 : \RESet~inputclkctrl_INCLK_bus\ [3] $end
$var wire 1 ; \RESet~inputclkctrl_INCLK_bus\ [2] $end
$var wire 1 < \RESet~inputclkctrl_INCLK_bus\ [1] $end
$var wire 1 = \RESet~inputclkctrl_INCLK_bus\ [0] $end
$var wire 1 > \TX~output_o\ $end
$var wire 1 ? \text1~output_o\ $end
$var wire 1 @ \CLOckIn~input_o\ $end
$var wire 1 A \CLOckIn~inputclkctrl_outclk\ $end
$var wire 1 B \f1|Add0~1\ $end
$var wire 1 C \f1|Add0~2_combout\ $end
$var wire 1 D \f1|Add0~3\ $end
$var wire 1 E \f1|Add0~4_combout\ $end
$var wire 1 F \f1|Add0~5\ $end
$var wire 1 G \f1|Add0~6_combout\ $end
$var wire 1 H \f1|Add0~35\ $end
$var wire 1 I \f1|Add0~36_combout\ $end
$var wire 1 J \f1|Add0~37\ $end
$var wire 1 K \f1|Add0~38_combout\ $end
$var wire 1 L \f1|Add0~39\ $end
$var wire 1 M \f1|Add0~40_combout\ $end
$var wire 1 N \f1|Add0~41\ $end
$var wire 1 O \f1|Add0~42_combout\ $end
$var wire 1 P \f1|Add0~43\ $end
$var wire 1 Q \f1|Add0~44_combout\ $end
$var wire 1 R \f1|Add0~45\ $end
$var wire 1 S \f1|Add0~46_combout\ $end
$var wire 1 T \f1|Add0~47\ $end
$var wire 1 U \f1|Add0~48_combout\ $end
$var wire 1 V \f1|Equal0~6_combout\ $end
$var wire 1 W \f1|Equal0~7_combout\ $end
$var wire 1 X \f1|i~1_combout\ $end
$var wire 1 Y \f1|Add0~7\ $end
$var wire 1 Z \f1|Add0~8_combout\ $end
$var wire 1 [ \f1|i~2_combout\ $end
$var wire 1 \ \f1|i~3_combout\ $end
$var wire 1 ] \f1|Add0~9\ $end
$var wire 1 ^ \f1|Add0~10_combout\ $end
$var wire 1 _ \f1|Add0~11\ $end
$var wire 1 ` \f1|Add0~12_combout\ $end
$var wire 1 a \f1|i~4_combout\ $end
$var wire 1 b \f1|Add0~13\ $end
$var wire 1 c \f1|Add0~14_combout\ $end
$var wire 1 d \f1|i~5_combout\ $end
$var wire 1 e \f1|Add0~15\ $end
$var wire 1 f \f1|Add0~16_combout\ $end
$var wire 1 g \f1|Add0~17\ $end
$var wire 1 h \f1|Add0~18_combout\ $end
$var wire 1 i \f1|Add0~19\ $end
$var wire 1 j \f1|Add0~20_combout\ $end
$var wire 1 k \f1|Add0~21\ $end
$var wire 1 l \f1|Add0~22_combout\ $end
$var wire 1 m \f1|Add0~23\ $end
$var wire 1 n \f1|Add0~24_combout\ $end
$var wire 1 o \f1|Add0~25\ $end
$var wire 1 p \f1|Add0~26_combout\ $end
$var wire 1 q \f1|Add0~27\ $end
$var wire 1 r \f1|Add0~28_combout\ $end
$var wire 1 s \f1|Add0~29\ $end
$var wire 1 t \f1|Add0~30_combout\ $end
$var wire 1 u \f1|Add0~31\ $end
$var wire 1 v \f1|Add0~32_combout\ $end
$var wire 1 w \f1|Add0~33\ $end
$var wire 1 x \f1|Add0~34_combout\ $end
$var wire 1 y \f1|Equal0~5_combout\ $end
$var wire 1 z \f1|i~0_combout\ $end
$var wire 1 { \f1|Add0~0_combout\ $end
$var wire 1 | \f1|Equal0~0_combout\ $end
$var wire 1 } \f1|Equal0~2_combout\ $end
$var wire 1 ~ \f1|Equal0~1_combout\ $end
$var wire 1 !! \f1|Equal0~3_combout\ $end
$var wire 1 "! \f1|Equal0~4_combout\ $end
$var wire 1 #! \f1|temp~0_combout\ $end
$var wire 1 $! \f1|temp~feeder_combout\ $end
$var wire 1 %! \f1|temp~q\ $end
$var wire 1 &! \f1|temp~clkctrl_outclk\ $end
$var wire 1 '! \State.IDLE~0_combout\ $end
$var wire 1 (! \RESet~input_o\ $end
$var wire 1 )! \n~0_combout\ $end
$var wire 1 *! \Add0~0_combout\ $end
$var wire 1 +! \Selector36~0_combout\ $end
$var wire 1 ,! \RESet~inputclkctrl_outclk\ $end
$var wire 1 -! \Add0~1\ $end
$var wire 1 .! \Add0~2_combout\ $end
$var wire 1 /! \Selector35~0_combout\ $end
$var wire 1 0! \Add0~3\ $end
$var wire 1 1! \Add0~4_combout\ $end
$var wire 1 2! \Selector34~0_combout\ $end
$var wire 1 3! \Add0~5\ $end
$var wire 1 4! \Add0~6_combout\ $end
$var wire 1 5! \Selector33~0_combout\ $end
$var wire 1 6! \Add0~7\ $end
$var wire 1 7! \Add0~8_combout\ $end
$var wire 1 8! \Selector32~0_combout\ $end
$var wire 1 9! \Add0~9\ $end
$var wire 1 :! \Add0~10_combout\ $end
$var wire 1 ;! \Selector31~0_combout\ $end
$var wire 1 <! \Add0~11\ $end
$var wire 1 =! \Add0~12_combout\ $end
$var wire 1 >! \Selector30~0_combout\ $end
$var wire 1 ?! \Add0~13\ $end
$var wire 1 @! \Add0~14_combout\ $end
$var wire 1 A! \Selector29~0_combout\ $end
$var wire 1 B! \Equal0~8_combout\ $end
$var wire 1 C! \Equal0~9_combout\ $end
$var wire 1 D! \Add0~15\ $end
$var wire 1 E! \Add0~17\ $end
$var wire 1 F! \Add0~18_combout\ $end
$var wire 1 G! \Selector27~0_combout\ $end
$var wire 1 H! \Add0~19\ $end
$var wire 1 I! \Add0~20_combout\ $end
$var wire 1 J! \Selector26~0_combout\ $end
$var wire 1 K! \Add0~21\ $end
$var wire 1 L! \Add0~22_combout\ $end
$var wire 1 M! \Selector25~0_combout\ $end
$var wire 1 N! \Equal0~6_combout\ $end
$var wire 1 O! \Add0~23\ $end
$var wire 1 P! \Add0~24_combout\ $end
$var wire 1 Q! \Selector24~0_combout\ $end
$var wire 1 R! \Add0~25\ $end
$var wire 1 S! \Add0~26_combout\ $end
$var wire 1 T! \Selector23~0_combout\ $end
$var wire 1 U! \Add0~27\ $end
$var wire 1 V! \Add0~28_combout\ $end
$var wire 1 W! \Selector22~0_combout\ $end
$var wire 1 X! \Add0~29\ $end
$var wire 1 Y! \Add0~30_combout\ $end
$var wire 1 Z! \Selector21~0_combout\ $end
$var wire 1 [! \Equal0~5_combout\ $end
$var wire 1 \! \Equal0~7_combout\ $end
$var wire 1 ]! \Add0~31\ $end
$var wire 1 ^! \Add0~32_combout\ $end
$var wire 1 _! \Selector20~0_combout\ $end
$var wire 1 `! \Add0~33\ $end
$var wire 1 a! \Add0~34_combout\ $end
$var wire 1 b! \Selector19~0_combout\ $end
$var wire 1 c! \Add0~35\ $end
$var wire 1 d! \Add0~36_combout\ $end
$var wire 1 e! \Selector18~0_combout\ $end
$var wire 1 f! \Add0~37\ $end
$var wire 1 g! \Add0~38_combout\ $end
$var wire 1 h! \Selector17~0_combout\ $end
$var wire 1 i! \Equal0~3_combout\ $end
$var wire 1 j! \Add0~39\ $end
$var wire 1 k! \Add0~40_combout\ $end
$var wire 1 l! \Selector16~0_combout\ $end
$var wire 1 m! \Add0~41\ $end
$var wire 1 n! \Add0~42_combout\ $end
$var wire 1 o! \Selector15~0_combout\ $end
$var wire 1 p! \Add0~43\ $end
$var wire 1 q! \Add0~44_combout\ $end
$var wire 1 r! \Selector14~0_combout\ $end
$var wire 1 s! \Add0~45\ $end
$var wire 1 t! \Add0~46_combout\ $end
$var wire 1 u! \Selector13~0_combout\ $end
$var wire 1 v! \Add0~47\ $end
$var wire 1 w! \Add0~48_combout\ $end
$var wire 1 x! \Selector12~0_combout\ $end
$var wire 1 y! \Add0~49\ $end
$var wire 1 z! \Add0~50_combout\ $end
$var wire 1 {! \Selector11~0_combout\ $end
$var wire 1 |! \Add0~51\ $end
$var wire 1 }! \Add0~52_combout\ $end
$var wire 1 ~! \Selector10~0_combout\ $end
$var wire 1 !" \Add0~53\ $end
$var wire 1 "" \Add0~54_combout\ $end
$var wire 1 #" \Selector9~0_combout\ $end
$var wire 1 $" \Add0~55\ $end
$var wire 1 %" \Add0~56_combout\ $end
$var wire 1 &" \Selector8~0_combout\ $end
$var wire 1 '" \Add0~57\ $end
$var wire 1 (" \Add0~58_combout\ $end
$var wire 1 )" \Selector7~0_combout\ $end
$var wire 1 *" \Add0~59\ $end
$var wire 1 +" \Add0~60_combout\ $end
$var wire 1 ," \Selector6~0_combout\ $end
$var wire 1 -" \Add0~61\ $end
$var wire 1 ." \Add0~62_combout\ $end
$var wire 1 /" \Selector5~0_combout\ $end
$var wire 1 0" \Equal0~0_combout\ $end
$var wire 1 1" \Equal0~1_combout\ $end
$var wire 1 2" \Equal0~2_combout\ $end
$var wire 1 3" \Equal0~4_combout\ $end
$var wire 1 4" \Equal0~10_combout\ $end
$var wire 1 5" \State.TXING~0_combout\ $end
$var wire 1 6" \Selector3~5_combout\ $end
$var wire 1 7" \Selector3~6_combout\ $end
$var wire 1 8" \Selector3~7_combout\ $end
$var wire 1 9" \Selector3~8_combout\ $end
$var wire 1 :" \Selector3~12_combout\ $end
$var wire 1 ;" \Selector3~13_combout\ $end
$var wire 1 <" \State.TXING~1_combout\ $end
$var wire 1 =" \State.IDLE~q\ $end
$var wire 1 >" \Selector1~0_combout\ $end
$var wire 1 ?" \State.TXR~q\ $end
$var wire 1 @" \State.TXING~q\ $end
$var wire 1 A" \Selector28~0_combout\ $end
$var wire 1 B" \Add0~16_combout\ $end
$var wire 1 C" \Selector3~2_combout\ $end
$var wire 1 D" \Selector3~0_combout\ $end
$var wire 1 E" \Selector3~1_combout\ $end
$var wire 1 F" \Selector3~3_combout\ $end
$var wire 1 G" \Selector3~4_combout\ $end
$var wire 1 H" \Selector3~9_combout\ $end
$var wire 1 I" \Selector3~10_combout\ $end
$var wire 1 J" \Selector3~11_combout\ $end
$var wire 1 K" \State.TXE~q\ $end
$var wire 1 L" \Selector4~0_combout\ $end
$var wire 1 M" \Selector4~1_combout\ $end
$var wire 1 N" \TX~reg0_q\ $end
$var wire 1 O" n [31] $end
$var wire 1 P" n [30] $end
$var wire 1 Q" n [29] $end
$var wire 1 R" n [28] $end
$var wire 1 S" n [27] $end
$var wire 1 T" n [26] $end
$var wire 1 U" n [25] $end
$var wire 1 V" n [24] $end
$var wire 1 W" n [23] $end
$var wire 1 X" n [22] $end
$var wire 1 Y" n [21] $end
$var wire 1 Z" n [20] $end
$var wire 1 [" n [19] $end
$var wire 1 \" n [18] $end
$var wire 1 ]" n [17] $end
$var wire 1 ^" n [16] $end
$var wire 1 _" n [15] $end
$var wire 1 `" n [14] $end
$var wire 1 a" n [13] $end
$var wire 1 b" n [12] $end
$var wire 1 c" n [11] $end
$var wire 1 d" n [10] $end
$var wire 1 e" n [9] $end
$var wire 1 f" n [8] $end
$var wire 1 g" n [7] $end
$var wire 1 h" n [6] $end
$var wire 1 i" n [5] $end
$var wire 1 j" n [4] $end
$var wire 1 k" n [3] $end
$var wire 1 l" n [2] $end
$var wire 1 m" n [1] $end
$var wire 1 n" n [0] $end
$var wire 1 o" \f1|i\ [24] $end
$var wire 1 p" \f1|i\ [23] $end
$var wire 1 q" \f1|i\ [22] $end
$var wire 1 r" \f1|i\ [21] $end
$var wire 1 s" \f1|i\ [20] $end
$var wire 1 t" \f1|i\ [19] $end
$var wire 1 u" \f1|i\ [18] $end
$var wire 1 v" \f1|i\ [17] $end
$var wire 1 w" \f1|i\ [16] $end
$var wire 1 x" \f1|i\ [15] $end
$var wire 1 y" \f1|i\ [14] $end
$var wire 1 z" \f1|i\ [13] $end
$var wire 1 {" \f1|i\ [12] $end
$var wire 1 |" \f1|i\ [11] $end
$var wire 1 }" \f1|i\ [10] $end
$var wire 1 ~" \f1|i\ [9] $end
$var wire 1 !# \f1|i\ [8] $end
$var wire 1 "# \f1|i\ [7] $end
$var wire 1 ## \f1|i\ [6] $end
$var wire 1 $# \f1|i\ [5] $end
$var wire 1 %# \f1|i\ [4] $end
$var wire 1 &# \f1|i\ [3] $end
$var wire 1 '# \f1|i\ [2] $end
$var wire 1 (# \f1|i\ [1] $end
$var wire 1 )# \f1|i\ [0] $end
$var wire 1 *# \ALT_INV_TX~reg0_q\ $end
$var wire 1 +# \ALT_INV_RESet~inputclkctrl_outclk\ $end
$var wire 1 ,# \ALT_INV_RESet~input_o\ $end
$upscope $end
$upscope $end
$enddefinitions $end
#0
$dumpvars
0!
0"
0#
1$
0%
1&
x'
1(
1)
1*
1+
1,
1-
0.
1/
00
01
1>
0?
0@
0A
0B
0C
1D
0E
0F
0G
1H
0I
0J
0K
1L
0M
0N
0O
1P
0Q
0R
0S
1T
0U
1V
1W
0X
1Y
0Z
1[
0\
0]
0^
1_
0`
0a
0b
0c
0d
1e
0f
0g
0h
1i
0j
0k
0l
1m
0n
0o
0p
1q
0r
0s
0t
1u
0v
0w
0x
1y
1z
1{
0|
1}
0~
1!!
0"!
0#!
0$!
0%!
0&!
1'!
0(!
1)!
0*!
0+!
0,!
1-!
0.!
0/!
00!
01!
02!
13!
04!
05!
06!
07!
08!
19!
0:!
0;!
0<!
0=!
0>!
1?!
0@!
0A!
1B!
1C!
0D!
1E!
0F!
0G!
0H!
0I!
0J!
1K!
0L!
0M!
1N!
0O!
0P!
0Q!
1R!
0S!
0T!
0U!
0V!
0W!
1X!
0Y!
0Z!
1[!
1\!
0]!
0^!
0_!
1`!
0a!
0b!
0c!
0d!
0e!
1f!
0g!
0h!
1i!
0j!
0k!
0l!
1m!
0n!
0o!
0p!
0q!
0r!
1s!
0t!
0u!
0v!
0w!
0x!
1y!
0z!
0{!
0|!
0}!
0~!
1!"
0""
0#"
0$"
0%"
0&"
1'"
0("
0)"
0*"
0+"
0,"
1-"
0."
0/"
10"
11"
12"
13"
14"
05"
16"
17"
18"
19"
1:"
1;"
1<"
0="
1>"
0?"
0@"
0A"
0B"
1C"
0D"
1E"
1F"
0G"
1H"
1I"
0J"
0K"
1L"
0M"
0N"
1*#
1+#
1,#
0O"
0P"
0Q"
0R"
0S"
0T"
0U"
0V"
0W"
0X"
0Y"
0Z"
0["
0\"
0]"
0^"
0_"
0`"
0a"
0b"
0c"
0d"
0e"
0f"
0g"
0h"
0i"
0j"
0k"
0l"
0m"
0n"
0o"
0p"
0q"
0r"
0s"
0t"
0u"
0v"
0w"
0x"
0y"
0z"
0{"
0|"
0}"
0~"
0!#
0"#
0##
0$#
0%#
0&#
0'#
0(#
0)#
16
17
18
09
12
13
14
05
1:
1;
1<
0=
$end
#10000
1!
1.
1@
19
1A
1)#
0{
1B
1C
0z
#20000
0!
0.
0@
09
0A
#30000
1!
1.
1@
19
1A
1(#
0)#
1{
0B
0C
0D
1E
1C
1D
1z
0E
#40000
0!
0.
0@
09
0A
#50000
1!
1.
1@
19
1A
1)#
0{
1B
0C
0D
0z
1E
#60000
0!
0.
0@
09
0A
#70000
1!
1.
1@
19
1A
0(#
1'#
0)#
1{
0B
0E
1F
1C
1D
1E
0F
1G
0C
1z
1X
0G
0X
#80000
0!
0.
0@
09
0A
#90000
1!
1.
1@
19
1A
1)#
0{
1B
1C
0z
#100000
0!
0.
0@
09
0A
#110000
1!
1.
1@
19
1A
1(#
0)#
1{
0B
0C
0D
0E
1F
1C
1D
1z
1E
0F
1G
1X
0G
0X
#120000
0!
0.
0@
09
0A
#130000
1!
1.
1@
19
1A
1)#
0{
1B
0C
0D
0z
0E
1F
1G
1X
#140000
0!
0.
0@
09
0A
#150000
1!
1.
1@
19
1A
0(#
0'#
1&#
0)#
1{
0B
0G
0Y
1E
0F
1C
1D
0E
1G
1Y
1Z
0X
0C
1z
1\
0Z
1X
1|
0\
#160000
0!
0.
0@
09
0A
#170000
1!
1.
1@
19
1A
1)#
0{
1B
1C
0z
0|
#180000
0!
0.
0@
09
0A
#190000
1!
1.
1@
19
1A
1(#
0)#
1{
0B
0C
0D
1E
1C
1D
1z
1|
0E
0|
#200000
0!
0.
0@
09
0A
#210000
1!
1.
1@
19
1A
1)#
0{
1B
0C
0D
0z
1E
#220000
0!
0.
0@
09
0A
#230000
1!
1.
1@
19
1A
0(#
1'#
0)#
1{
0B
0E
1F
1C
1D
1E
0F
0G
0Y
0C
1z
1Z
0X
1G
1Y
0Z
1X
1\
0\
#240000
0!
0.
0@
09
0A
#250000
1!
1.
1@
19
1A
1)#
0{
1B
1C
0z
#260000
0!
0.
0@
09
0A
#270000
1!
1.
1@
19
1A
1(#
0)#
1{
0B
0C
0D
0E
1F
1C
1D
1z
1E
0F
0G
0Y
1Z
0X
1G
1Y
0Z
1X
1\
0\
#280000
0!
0.
0@
09
0A
#290000
1!
1.
1@
19
1A
1)#
0{
1B
0C
0D
0z
0E
1F
0G
0Y
1Z
0X
1\
#300000
0!
0.
0@
09
0A
#310000
1!
1.
1@
19
1A
0(#
0'#
0&#
1%#
0)#
1{
0B
0Z
1]
1G
1Y
1E
0F
1C
1D
0E
0G
1Z
0]
1X
1^
0\
0C
1z
0^
1\
0X
#320000
0!
0.
0@
09
0A
#330000
1!
1.
1@
19
1A
1)#
0{
1B
1C
0z
#340000
0!
0.
0@
09
0A
#350000
1!
1.
1@
19
1A
1(#
0)#
1{
0B
0C
0D
1E
1C
1D
1z
0E
#360000
0!
0.
0@
09
0A
#370000
1!
1.
1@
19
1A
1)#
0{
1B
0C
0D
0z
1E
#380000
0!
0.
0@
09
0A
#390000
1!
1.
1@
19
1A
0(#
1'#
0)#
1{
0B
0E
1F
1C
1D
1E
0F
1G
0C
1z
1X
0G
0X
#400000
0!
0.
0@
09
0A
#410000
1!
1.
1@
19
1A
1)#
0{
1B
1C
0z
#420000
0!
0.
0@
09
0A
#430000
1!
1.
1@
19
1A
1(#
0)#
1{
0B
0C
0D
0E
1F
1C
1D
1z
1E
0F
1G
1X
0G
0X
#440000
0!
0.
0@
09
0A
#450000
1!
1.
1@
19
1A
1)#
0{
1B
0C
0D
0z
0E
1F
1G
1X
#460000
0!
0.
0@
09
0A
#470000
1!
1.
1@
19
1A
0(#
0'#
1&#
0)#
1{
0B
0G
0Y
1E
0F
1C
1D
0E
1G
1Y
0Z
1]
0X
0C
1z
1^
0\
1Z
0]
1X
1|
0^
1\
#480000
0!
0.
0@
09
0A
#490000
1!
1.
1@
19
1A
1)#
0{
1B
1C
0z
0|
#500000
0!
0.
0@
09
0A
#510000
1!
1.
1@
19
1A
1(#
0)#
1{
0B
0C
0D
1E
1C
1D
1z
1|
0E
0|
#520000
0!
0.
0@
09
0A
#530000
1!
1.
1@
19
1A
1)#
0{
1B
0C
0D
0z
1E
#540000
0!
0.
0@
09
0A
#550000
1!
1.
1@
19
1A
0(#
1'#
0)#
1{
0B
0E
1F
1C
1D
1E
0F
0G
0Y
0C
1z
0Z
1]
0X
1G
1Y
1Z
0]
1X
1^
0\
0^
1\
#560000
0!
0.
0@
09
0A
#570000
1!
1.
1@
19
1A
1)#
0{
1B
1C
0z
#580000
0!
0.
0@
09
0A
#590000
1!
1.
1@
19
1A
1(#
0)#
1{
0B
0C
0D
0E
1F
1C
1D
1z
1E
0F
0G
0Y
0Z
1]
0X
1G
1Y
1Z
0]
1X
1^
0\
0^
1\
#600000
0!
0.
0@
09
0A
#610000
1!
1.
1@
19
1A
1)#
0{
1B
0C
0D
0z
0E
1F
0G
0Y
0Z
1]
0X
1^
0\
#620000
0!
0.
0@
09
0A
#630000
1!
1.
1@
19
1A
0(#
0'#
0&#
0%#
1$#
0)#
1{
0B
0^
0_
1Z
0]
1G
1Y
1E
0F
1C
1D
0E
0G
0Z
1X
1^
1_
1\
1`
0C
1z
1a
0`
0\
0X
0a
#640000
0!
0.
0@
09
0A
#650000
1!
1.
1@
19
1A
1)#
0{
1B
1C
0z
#660000
0!
0.
0@
09
0A
#670000
1!
1.
1@
19
1A
1(#
0)#
1{
0B
0C
0D
1E
1C
1D
1z
0E
#680000
0!
0.
0@
09
0A
#690000
1!
1.
1@
19
1A
1)#
0{
1B
0C
0D
0z
1E
#700000
0!
0.
0@
09
0A
#710000
1!
1.
1@
19
1A
0(#
1'#
0)#
1{
0B
0E
1F
1C
1D
1E
0F
1G
0C
1z
1X
0G
0X
#720000
0!
0.
0@
09
0A
#730000
1!
1.
1@
19
1A
1)#
0{
1B
1C
0z
#740000
0!
0.
0@
09
0A
#750000
1!
1.
1@
19
1A
1(#
0)#
1{
0B
0C
0D
0E
1F
1C
1D
1z
1E
0F
1G
1X
0G
0X
#760000
0!
0.
0@
09
0A
#770000
1!
1.
1@
19
1A
1)#
0{
1B
0C
0D
0z
0E
1F
1G
1X
#780000
0!
0.
0@
09
0A
#790000
1!
1.
1@
19
1A
0(#
0'#
1&#
0)#
1{
0B
0G
0Y
1E
0F
1C
1D
0E
1G
1Y
1Z
0X
0C
1z
1\
0Z
1X
1|
0\
#800000
0!
0.
0@
09
0A
#810000
1!
1.
1@
19
1A
1)#
0{
1B
1C
0z
0|
#820000
0!
0.
0@
09
0A
#830000
1!
1.
1@
19
1A
1(#
0)#
1{
0B
0C
0D
1E
1C
1D
1z
1|
0E
0|
#840000
0!
0.
0@
09
0A
#850000
1!
1.
1@
19
1A
1)#
0{
1B
0C
0D
0z
1E
#860000
0!
0.
0@
09
0A
#870000
1!
1.
1@
19
1A
0(#
1'#
0)#
1{
0B
0E
1F
1C
1D
1E
0F
0G
0Y
0C
1z
1Z
0X
1G
1Y
0Z
1X
1\
0\
#880000
0!
0.
0@
09
0A
#890000
1!
1.
1@
19
1A
1)#
0{
1B
1C
0z
#900000
0!
0.
0@
09
0A
#910000
1!
1.
1@
19
1A
1(#
0)#
1{
0B
0C
0D
0E
1F
1C
1D
1z
1E
0F
0G
0Y
1Z
0X
1G
1Y
0Z
1X
1\
0\
#920000
0!
0.
0@
09
0A
#930000
1!
1.
1@
19
1A
1)#
0{
1B
0C
0D
0z
0E
1F
0G
0Y
1Z
0X
1\
#940000
0!
0.
0@
09
0A
#950000
1!
1.
1@
19
1A
0(#
0'#
0&#
1%#
0)#
1{
0B
0Z
1]
1G
1Y
1E
0F
1C
1D
0E
0G
1Z
0]
1X
0^
0_
0\
0C
1z
1`
1^
1_
1\
0X
0`
1a
0a
#960000
0!
0.
0@
09
0A
#970000
1!
1.
1@
19
1A
1)#
0{
1B
1C
0z
#980000
0!
0.
0@
09
0A
#990000
1!
1.
1@
19
1A
1(#
0)#
1{
0B
0C
0D
1E
1C
1D
1z
0E
#1000000
0!
0.
0@
09
0A
#1010000
1!
1.
1@
19
1A
1)#
0{
1B
0C
0D
0z
1E
#1020000
0!
0.
0@
09
0A
#1030000
1!
1.
1@
19
1A
0(#
1'#
0)#
1{
0B
0E
1F
1C
1D
1E
0F
1G
0C
1z
1X
0G
0X
#1040000
0!
0.
0@
09
0A
#1050000
1!
1.
1@
19
1A
1)#
0{
1B
1C
0z
#1060000
0!
0.
0@
09
0A
#1070000
1!
1.
1@
19
1A
1(#
0)#
1{
0B
0C
0D
0E
1F
1C
1D
1z
1E
0F
1G
1X
0G
0X
#1080000
0!
0.
0@
09
0A
#1090000
1!
1.
1@
19
1A
1)#
0{
1B
0C
0D
0z
0E
1F
1G
1X
#1100000
0!
0.
0@
09
0A
#1110000
1!
1.
1@
19
1A
0(#
0'#
1&#
0)#
1{
0B
0G
0Y
1E
0F
1C
1D
0E
1G
1Y
0Z
1]
0X
0C
1z
0^
0_
0\
1Z
0]
1X
1|
1^
1_
1\
1`
1a
0`
0a
#1120000
0!
0.
0@
09
0A
#1130000
1!
1.
1@
19
1A
1)#
0{
1B
1C
0z
0|
#1140000
0!
0.
0@
09
0A
#1150000
1!
1.
1@
19
1A
1(#
0)#
1{
0B
0C
0D
1E
1C
1D
1z
1|
0E
0|
#1160000
0!
0.
0@
09
0A
#1170000
1!
1.
1@
19
1A
1)#
0{
1B
0C
0D
0z
1E
#1180000
0!
0.
0@
09
0A
#1190000
1!
1.
1@
19
1A
0(#
1'#
0)#
1{
0B
0E
1F
1C
1D
1E
0F
0G
0Y
0C
1z
0Z
1]
0X
1G
1Y
1Z
0]
1X
0^
0_
0\
1`
1^
1_
1\
0`
1a
0a
#1200000
0!
0.
0@
09
0A
#1210000
1!
1.
1@
19
1A
1)#
0{
1B
1C
0z
#1220000
0!
0.
0@
09
0A
#1230000
1!
1.
1@
19
1A
1(#
0)#
1{
0B
0C
0D
0E
1F
1C
1D
1z
1E
0F
0G
0Y
0Z
1]
0X
1G
1Y
1Z
0]
1X
0^
0_
0\
1`
1^
1_
1\
0`
1a
0a
#1240000
0!
0.
0@
09
0A
#1250000
1!
1.
1@
19
1A
1)#
0{
1B
0C
0D
0z
0E
1F
0G
0Y
0Z
1]
0X
0^
0_
0\
1`
1a
#1260000
0!
0.
0@
09
0A
#1270000
1!
1.
1@
19
1A
0(#
0'#
0&#
0%#
0$#
1##
0)#
1{
0B
0`
1b
1^
1_
1Z
0]
1G
1Y
1E
0F
1C
1D
0E
0G
0Z
1X
0^
1\
1`
0b
1c
0a
0C
1z
1d
0c
1a
0\
0X
0d
#1280000
0!
0.
0@
09
0A
#1290000
1!
1.
1@
19
1A
1)#
0{
1B
1C
0z
#1300000
0!
0.
0@
09
0A
#1310000
1!
1.
1@
19
1A
1(#
0)#
1{
0B
0C
0D
1E
1C
1D
1z
0E
#1320000
0!
0.
0@
09
0A
#1330000
1!
1.
1@
19
1A
1)#
0{
1B
0C
0D
0z
1E
#1340000
0!
0.
0@
09
0A
#1350000
1!
1.
1@
19
1A
0(#
1'#
0)#
1{
0B
0E
1F
1C
1D
1E
0F
1G
0C
1z
1X
0G
0X
#1360000
0!
0.
0@
09
0A
#1370000
1!
1.
1@
19
1A
1)#
0{
1B
1C
0z
#1380000
0!
0.
0@
09
0A
#1390000
1!
1.
1@
19
1A
1(#
0)#
1{
0B
0C
0D
0E
1F
1C
1D
1z
1E
0F
1G
1X
0G
0X
#1400000
0!
0.
0@
09
0A
#1410000
1!
1.
1@
19
1A
1)#
0{
1B
0C
0D
0z
0E
1F
1G
1X
#1420000
0!
0.
0@
09
0A
#1430000
1!
1.
1@
19
1A
0(#
0'#
1&#
0)#
1{
0B
0G
0Y
1E
0F
1C
1D
0E
1G
1Y
1Z
0X
0C
1z
1\
0Z
1X
1|
0\
#1440000
0!
0.
0@
09
0A
#1450000
1!
1.
1@
19
1A
1)#
0{
1B
1C
0z
0|
#1460000
0!
0.
0@
09
0A
#1470000
1!
1.
1@
19
1A
1(#
0)#
1{
0B
0C
0D
1E
1C
1D
1z
1|
0E
0|
#1480000
0!
0.
0@
09
0A
#1490000
1!
1.
1@
19
1A
1)#
0{
1B
0C
0D
0z
1E
#1500000
0!
0.
0@
09
0A
#1510000
1!
1.
1@
19
1A
0(#
1'#
0)#
1{
0B
0E
1F
1C
1D
1E
0F
0G
0Y
0C
1z
1Z
0X
1G
1Y
0Z
1X
1\
0\
#1520000
0!
0.
0@
09
0A
#1530000
1!
1.
1@
19
1A
1)#
0{
1B
1C
0z
#1540000
0!
0.
0@
09
0A
#1550000
1!
1.
1@
19
1A
1(#
0)#
1{
0B
0C
0D
0E
1F
1C
1D
1z
1E
0F
0G
0Y
1Z
0X
1G
1Y
0Z
1X
1\
0\
#1560000
0!
0.
0@
09
0A
#1570000
1!
1.
1@
19
1A
1)#
0{
1B
0C
0D
0z
0E
1F
0G
0Y
1Z
0X
1\
#1580000
0!
0.
0@
09
0A
#1590000
1!
1.
1@
19
1A
0(#
0'#
0&#
1%#
0)#
1{
0B
0Z
1]
1G
1Y
1E
0F
1C
1D
0E
0G
1Z
0]
1X
1^
0\
0C
1z
0^
1\
0X
#1600000
0!
0.
0@
09
0A
#1610000
1!
1.
1@
19
1A
1)#
0{
1B
1C
0z
#1620000
0!
0.
0@
09
0A
#1630000
1!
1.
1@
19
1A
1(#
0)#
1{
0B
0C
0D
1E
1C
1D
1z
0E
#1640000
0!
0.
0@
09
0A
#1650000
1!
1.
1@
19
1A
1)#
0{
1B
0C
0D
0z
1E
#1660000
0!
0.
0@
09
0A
#1670000
1!
1.
1@
19
1A
0(#
1'#
0)#
1{
0B
0E
1F
1C
1D
1E
0F
1G
0C
1z
1X
0G
0X
#1680000
0!
0.
0@
09
0A
#1690000
1!
1.
1@
19
1A
1)#
0{
1B
1C
0z
#1700000
0!
0.
0@
09
0A
#1710000
1!
1.
1@
19
1A
1(#
0)#
1{
0B
0C
0D
0E
1F
1C
1D
1z
1E
0F
1G
1X
0G
0X
#1720000
0!
0.
0@
09
0A
#1730000
1!
1.
1@
19
1A
1)#
0{
1B
0C
0D
0z
0E
1F
1G
1X
#1740000
0!
0.
0@
09
0A
